%YAML 1.1
%TAG !u! tag:unity3d.com,2011:
--- !u!1 &40
GameObject:
  m_ObjectHideFlags: 0
  m_CorrespondingSourceObject: {fileID: 0}
  m_PrefabInstance: {fileID: 0}
  m_PrefabAsset: {fileID: 0}
  serializedVersion: 6
  m_Component:
  - component: {fileID: 74}
  - component: {fileID: 127}
  m_Layer: 0
  m_Name: ColorTile
  m_TagString: Untagged
  m_Icon: {fileID: 0}
  m_NavMeshLayer: 0
  m_StaticEditorFlags: 0
  m_IsActive: 1
--- !u!4 &74
Transform:
  m_ObjectHideFlags: 0
  m_CorrespondingSourceObject: {fileID: 0}
  m_PrefabInstance: {fileID: 0}
  m_PrefabAsset: {fileID: 0}
  m_GameObject: {fileID: 40}
  m_LocalRotation: {x: -0, y: -0, z: -0, w: 1}
  m_LocalPosition: {x: 0, y: 0, z: 0}
  m_LocalScale: {x: 1, y: 1, z: 1}
  m_Children:
  - {fileID: 3642539097527187994}
  m_Father: {fileID: 0}
  m_RootOrder: 0
  m_LocalEulerAnglesHint: {x: 0, y: 0, z: 0}
--- !u!114 &127
MonoBehaviour:
  m_ObjectHideFlags: 0
  m_CorrespondingSourceObject: {fileID: 0}
  m_PrefabInstance: {fileID: 0}
  m_PrefabAsset: {fileID: 0}
  m_GameObject: {fileID: 40}
  m_Enabled: 1
  m_EditorHideFlags: 0
  m_Script: {fileID: 11500000, guid: 3db679d6ca517f84c866525dc9b38e53, type: 3}
  m_Name: 
  m_EditorClassIdentifier: 
  m_Color: 1
  m_ColorMaterials:
  - {fileID: 2100000, guid: beeaf22d70d2b68479478d9de6967109, type: 2}
  - {fileID: 2100000, guid: 99003e86a2f00ab4b8d939792209a442, type: 2}
  - {fileID: 2100000, guid: a2319978dbea9454c8f6e2fc252b85a3, type: 2}
  - {fileID: 2100000, guid: f2b12608d57f71b4fbf1be6f48742e3c, type: 2}
  - {fileID: 2100000, guid: bed631e067c432c4cbb63117735e632f, type: 2}
  m_ColorRenderers:
  - {fileID: 3642539097529430154}
--- !u!1001 &3642539097527087482
PrefabInstance:
  m_ObjectHideFlags: 0
  serializedVersion: 2
  m_Modification:
    m_TransformParent: {fileID: 74}
    m_Modifications:
    - target: {fileID: 170218, guid: d5ccb1f5853b7bc4c8818c011068fc0a, type: 3}
      propertyPath: m_Name
      value: Cube
      objectReference: {fileID: 0}
    - target: {fileID: 428896, guid: d5ccb1f5853b7bc4c8818c011068fc0a, type: 3}
      propertyPath: m_LocalPosition.x
      value: 0
      objectReference: {fileID: 0}
    - target: {fileID: 428896, guid: d5ccb1f5853b7bc4c8818c011068fc0a, type: 3}
      propertyPath: m_LocalPosition.y
      value: -0.2
      objectReference: {fileID: 0}
    - target: {fileID: 428896, guid: d5ccb1f5853b7bc4c8818c011068fc0a, type: 3}
      propertyPath: m_LocalPosition.z
      value: 0
      objectReference: {fileID: 0}
    - target: {fileID: 428896, guid: d5ccb1f5853b7bc4c8818c011068fc0a, type: 3}
      propertyPath: m_LocalRotation.x
      value: 0
      objectReference: {fileID: 0}
    - target: {fileID: 428896, guid: d5ccb1f5853b7bc4c8818c011068fc0a, type: 3}
      propertyPath: m_LocalRotation.y
      value: 0
      objectReference: {fileID: 0}
    - target: {fileID: 428896, guid: d5ccb1f5853b7bc4c8818c011068fc0a, type: 3}
      propertyPath: m_LocalRotation.z
      value: 0
      objectReference: {fileID: 0}
    - target: {fileID: 428896, guid: d5ccb1f5853b7bc4c8818c011068fc0a, type: 3}
      propertyPath: m_LocalRotation.w
      value: 1
      objectReference: {fileID: 0}
    - target: {fileID: 428896, guid: d5ccb1f5853b7bc4c8818c011068fc0a, type: 3}
      propertyPath: m_RootOrder
      value: 0
      objectReference: {fileID: 0}
    - target: {fileID: 428896, guid: d5ccb1f5853b7bc4c8818c011068fc0a, type: 3}
      propertyPath: m_LocalEulerAnglesHint.x
      value: 0
      objectReference: {fileID: 0}
    - target: {fileID: 428896, guid: d5ccb1f5853b7bc4c8818c011068fc0a, type: 3}
      propertyPath: m_LocalEulerAnglesHint.y
      value: 0
      objectReference: {fileID: 0}
    - target: {fileID: 428896, guid: d5ccb1f5853b7bc4c8818c011068fc0a, type: 3}
      propertyPath: m_LocalEulerAnglesHint.z
      value: 0
      objectReference: {fileID: 0}
    - target: {fileID: 428896, guid: d5ccb1f5853b7bc4c8818c011068fc0a, type: 3}
      propertyPath: m_LocalScale.y
      value: 0.4
      objectReference: {fileID: 0}
    - target: {fileID: 2376176, guid: d5ccb1f5853b7bc4c8818c011068fc0a, type: 3}
      propertyPath: m_Materials.Array.data[0]
      value: 
      objectReference: {fileID: 2100000, guid: 99003e86a2f00ab4b8d939792209a442, type: 2}
    - target: {fileID: 6503502, guid: d5ccb1f5853b7bc4c8818c011068fc0a, type: 3}
      propertyPath: m_Size.x
      value: 1
      objectReference: {fileID: 0}
    - target: {fileID: 6503502, guid: d5ccb1f5853b7bc4c8818c011068fc0a, type: 3}
      propertyPath: m_Size.y
      value: 1
      objectReference: {fileID: 0}
    - target: {fileID: 6503502, guid: d5ccb1f5853b7bc4c8818c011068fc0a, type: 3}
      propertyPath: m_Size.z
      value: 1
      objectReference: {fileID: 0}
    m_RemovedComponents:
    - {fileID: 11404538, guid: d5ccb1f5853b7bc4c8818c011068fc0a, type: 3}
    - {fileID: 5403558, guid: d5ccb1f5853b7bc4c8818c011068fc0a, type: 3}
  m_SourcePrefab: {fileID: 100100000, guid: d5ccb1f5853b7bc4c8818c011068fc0a, type: 3}
--- !u!4 &3642539097527187994 stripped
Transform:
  m_CorrespondingSourceObject: {fileID: 428896, guid: d5ccb1f5853b7bc4c8818c011068fc0a,
    type: 3}
  m_PrefabInstance: {fileID: 3642539097527087482}
  m_PrefabAsset: {fileID: 0}
--- !u!23 &3642539097529430154 stripped
MeshRenderer:
  m_CorrespondingSourceObject: {fileID: 2376176, guid: d5ccb1f5853b7bc4c8818c011068fc0a,
    type: 3}
  m_PrefabInstance: {fileID: 3642539097527087482}
  m_PrefabAsset: {fileID: 0}
