%YAML 1.1
%TAG !u! tag:unity3d.com,2011:
--- !u!1 &41
GameObject:
  m_ObjectHideFlags: 0
  m_CorrespondingSourceObject: {fileID: 0}
  m_PrefabInstance: {fileID: 0}
  m_PrefabAsset: {fileID: 0}
  serializedVersion: 6
  m_Component:
  - component: {fileID: 75}
  - component: {fileID: 129}
  m_Layer: 0
  m_Name: OutColorTile
  m_TagString: Untagged
  m_Icon: {fileID: 0}
  m_NavMeshLayer: 0
  m_StaticEditorFlags: 0
  m_IsActive: 1
--- !u!4 &75
Transform:
  m_ObjectHideFlags: 0
  m_CorrespondingSourceObject: {fileID: 0}
  m_PrefabInstance: {fileID: 0}
  m_PrefabAsset: {fileID: 0}
  m_GameObject: {fileID: 41}
  m_LocalRotation: {x: -0, y: -0, z: -0, w: 1}
  m_LocalPosition: {x: 0, y: -0.5, z: 0}
  m_LocalScale: {x: 1, y: 1, z: 1}
  m_Children:
  - {fileID: 1682697977715557921}
  m_Father: {fileID: 0}
  m_RootOrder: 0
  m_LocalEulerAnglesHint: {x: 0, y: 0, z: 0}
--- !u!114 &129
MonoBehaviour:
  m_ObjectHideFlags: 0
  m_CorrespondingSourceObject: {fileID: 0}
  m_PrefabInstance: {fileID: 0}
  m_PrefabAsset: {fileID: 0}
  m_GameObject: {fileID: 41}
  m_Enabled: 1
  m_EditorHideFlags: 0
  m_Script: {fileID: 11500000, guid: 3fec180a9ed22bc4f8946b85b015ca45, type: 3}
  m_Name: 
  m_EditorClassIdentifier: 
  m_Color: 1
  m_ColorMaterials:
  - {fileID: 2100000, guid: beeaf22d70d2b68479478d9de6967109, type: 2}
  - {fileID: 2100000, guid: 99003e86a2f00ab4b8d939792209a442, type: 2}
  - {fileID: 2100000, guid: a2319978dbea9454c8f6e2fc252b85a3, type: 2}
  - {fileID: 2100000, guid: f2b12608d57f71b4fbf1be6f48742e3c, type: 2}
  - {fileID: 2100000, guid: bed631e067c432c4cbb63117735e632f, type: 2}
  m_ColorRenderers:
  - {fileID: 1682697977717836977}
--- !u!1001 &1682697977715985729
PrefabInstance:
  m_ObjectHideFlags: 0
  serializedVersion: 2
  m_Modification:
    m_TransformParent: {fileID: 75}
    m_Modifications:
    - target: {fileID: 170218, guid: d5ccb1f5853b7bc4c8818c011068fc0a, type: 3}
      propertyPath: m_Name
      value: CubeGfx
      objectReference: {fileID: 0}
    - target: {fileID: 428896, guid: d5ccb1f5853b7bc4c8818c011068fc0a, type: 3}
      propertyPath: m_LocalPosition.x
      value: 0
      objectReference: {fileID: 0}
    - target: {fileID: 428896, guid: d5ccb1f5853b7bc4c8818c011068fc0a, type: 3}
      propertyPath: m_LocalPosition.y
      value: -0.2
      objectReference: {fileID: 0}
    - target: {fileID: 428896, guid: d5ccb1f5853b7bc4c8818c011068fc0a, type: 3}
      propertyPath: m_LocalPosition.z
      value: 0
      objectReference: {fileID: 0}
    - target: {fileID: 428896, guid: d5ccb1f5853b7bc4c8818c011068fc0a, type: 3}
      propertyPath: m_LocalRotation.x
      value: 0
      objectReference: {fileID: 0}
    - target: {fileID: 428896, guid: d5ccb1f5853b7bc4c8818c011068fc0a, type: 3}
      propertyPath: m_LocalRotation.y
      value: 0
      objectReference: {fileID: 0}
    - target: {fileID: 428896, guid: d5ccb1f5853b7bc4c8818c011068fc0a, type: 3}
      propertyPath: m_LocalRotation.z
      value: 0
      objectReference: {fileID: 0}
    - target: {fileID: 428896, guid: d5ccb1f5853b7bc4c8818c011068fc0a, type: 3}
      propertyPath: m_LocalRotation.w
      value: 1
      objectReference: {fileID: 0}
    - target: {fileID: 428896, guid: d5ccb1f5853b7bc4c8818c011068fc0a, type: 3}
      propertyPath: m_RootOrder
      value: 0
      objectReference: {fileID: 0}
    - target: {fileID: 428896, guid: d5ccb1f5853b7bc4c8818c011068fc0a, type: 3}
      propertyPath: m_LocalEulerAnglesHint.x
      value: 0
      objectReference: {fileID: 0}
    - target: {fileID: 428896, guid: d5ccb1f5853b7bc4c8818c011068fc0a, type: 3}
      propertyPath: m_LocalEulerAnglesHint.y
      value: 0
      objectReference: {fileID: 0}
    - target: {fileID: 428896, guid: d5ccb1f5853b7bc4c8818c011068fc0a, type: 3}
      propertyPath: m_LocalEulerAnglesHint.z
      value: 0
      objectReference: {fileID: 0}
    - target: {fileID: 2376176, guid: d5ccb1f5853b7bc4c8818c011068fc0a, type: 3}
      propertyPath: m_Materials.Array.data[0]
      value: 
      objectReference: {fileID: 2100000, guid: 99003e86a2f00ab4b8d939792209a442, type: 2}
    m_RemovedComponents: []
  m_SourcePrefab: {fileID: 100100000, guid: d5ccb1f5853b7bc4c8818c011068fc0a, type: 3}
--- !u!4 &1682697977715557921 stripped
Transform:
  m_CorrespondingSourceObject: {fileID: 428896, guid: d5ccb1f5853b7bc4c8818c011068fc0a,
    type: 3}
  m_PrefabInstance: {fileID: 1682697977715985729}
  m_PrefabAsset: {fileID: 0}
--- !u!23 &1682697977717836977 stripped
MeshRenderer:
  m_CorrespondingSourceObject: {fileID: 2376176, guid: d5ccb1f5853b7bc4c8818c011068fc0a,
    type: 3}
  m_PrefabInstance: {fileID: 1682697977715985729}
  m_PrefabAsset: {fileID: 0}
