%YAML 1.1
%TAG !u! tag:unity3d.com,2011:
--- !u!1 &7643681253606197608
GameObject:
  m_ObjectHideFlags: 0
  m_CorrespondingSourceObject: {fileID: 0}
  m_PrefabInstance: {fileID: 0}
  m_PrefabAsset: {fileID: 0}
  serializedVersion: 6
  m_Component:
  - component: {fileID: 7643681253606197609}
  - component: {fileID: 549235198881011785}
  m_Layer: 0
  m_Name: Level_Smart_15
  m_TagString: Untagged
  m_Icon: {fileID: 0}
  m_NavMeshLayer: 0
  m_StaticEditorFlags: 0
  m_IsActive: 1
--- !u!4 &7643681253606197609
Transform:
  m_ObjectHideFlags: 0
  m_CorrespondingSourceObject: {fileID: 0}
  m_PrefabInstance: {fileID: 0}
  m_PrefabAsset: {fileID: 0}
  m_GameObject: {fileID: 7643681253606197608}
  m_LocalRotation: {x: 0, y: 0, z: 0, w: 1}
  m_LocalPosition: {x: 0, y: 0, z: 0}
  m_LocalScale: {x: 1, y: 1, z: 1}
  m_Children: []
  m_Father: {fileID: 0}
  m_RootOrder: 0
  m_LocalEulerAnglesHint: {x: 0, y: 0, z: 0}
--- !u!114 &549235198881011785
MonoBehaviour:
  m_ObjectHideFlags: 0
  m_CorrespondingSourceObject: {fileID: 0}
  m_PrefabInstance: {fileID: 0}
  m_PrefabAsset: {fileID: 0}
  m_GameObject: {fileID: 7643681253606197608}
  m_Enabled: 1
  m_EditorHideFlags: 0
  m_Script: {fileID: 11500000, guid: 14d1eb1d75320384ca0cd2922ac9fe10, type: 3}
  m_Name: 
  m_EditorClassIdentifier: 
  m_LevelTexture: {fileID: 2800000, guid: 03b6fd8d16c4b2340b8eab9232ec8eda, type: 3}
  m_TileColors: {fileID: 11400000, guid: cdc8035ae668f2d40a9405b56169652f, type: 2}
  m_TileSet: {fileID: 11400000, guid: 7e3a4c0aec0e4f24dbae8b26b09654f3, type: 2}
  m_MaxDistanceTileToPosition: 0.05
